<svg width="394" height="626" viewBox="0 0 394 626" fill="none" xmlns="http://www.w3.org/2000/svg">
<path fill-rule="evenodd" clip-rule="evenodd" d="M-30.5775 501.751C-88.6461 465.13 -71.3108 390.892 -96.3034 332.78C-122.666 271.482 -201.903 212.478 -178.688 157.367C-155.366 102.003 -68.2057 100.186 1.14285 101.45C55.9397 102.449 102.116 140.086 154.597 163.442C218.216 191.755 302.992 193.618 335.942 250.45C370.015 309.219 339.585 373.722 304.371 421.771C272.771 464.887 215.196 479.538 158.046 493.185C96.6844 507.837 28.1443 538.784 -30.5775 501.751Z" fill="white" fill-opacity="0.1"/>
</svg>
