<svg width="283" height="342" viewBox="0 0 283 342" fill="none" xmlns="http://www.w3.org/2000/svg">
<path fill-rule="evenodd" clip-rule="evenodd" d="M48.6149 10.2092C-17.3266 27.0481 2.96981 120.263 -46.6872 145.797C-73.8697 159.775 -134.005 177.972 -62.4114 293.916C-15.9824 368.628 48.7239 351.343 79.8665 275.763C90.9471 256.633 105.245 250.538 124.085 249.303C142.925 248.068 183.095 272.352 221.213 257.103C335.921 211.216 295.564 -52.852 48.6149 10.2092Z" fill="#0D3E83" fill-opacity="0.4"/>
</svg>
