<svg width="592" height="549" viewBox="0 0 592 549" fill="none" xmlns="http://www.w3.org/2000/svg">
<path fill-rule="evenodd" clip-rule="evenodd" d="M14.144 379.782C-25.2837 352.097 -13.5133 295.974 -30.4829 252.042C-48.3826 205.703 -102.184 161.097 -86.4208 119.434C-70.5854 77.5789 -11.4049 76.2056 35.6817 77.1612C72.888 77.9162 104.241 106.369 139.875 124.026C183.071 145.43 240.633 146.839 263.006 189.803C286.14 234.231 265.479 282.994 241.569 319.318C220.113 351.913 181.02 362.989 142.216 373.306C100.553 384.382 54.0153 407.778 14.144 379.782Z" fill="#554E4E" fill-opacity="0.1"/>
<g clip-path="url(#clip0_389:5)">
<path opacity="0.4" d="M510.564 307.093C517.472 307.093 523.072 301.484 523.072 294.564C523.072 287.645 517.472 282.035 510.564 282.035C503.656 282.035 498.056 287.645 498.056 294.564C498.056 301.484 503.656 307.093 510.564 307.093Z" fill="#6C63FF"/>
<path opacity="0.4" d="M246.848 238.163C256.695 238.163 264.678 230.167 264.678 220.303C264.678 210.439 256.695 202.442 246.848 202.442C237.001 202.442 229.018 210.439 229.018 220.303C229.018 230.167 237.001 238.163 246.848 238.163Z" fill="#6C63FF"/>
<path opacity="0.4" d="M213.849 241.362C220.757 241.362 226.356 235.753 226.356 228.833C226.356 221.914 220.757 216.304 213.849 216.304C206.941 216.304 201.341 221.914 201.341 228.833C201.341 235.753 206.941 241.362 213.849 241.362Z" fill="#6C63FF"/>
<path d="M521.04 434.671C511.157 445.509 510.798 461.297 510.798 461.297C510.798 461.297 526.462 459.513 536.345 448.675C546.228 437.836 546.587 422.048 546.587 422.048C546.587 422.048 530.923 423.832 521.04 434.671Z" fill="#3F3D56"/>
<path d="M526.622 437.789C523.632 452.16 511.061 461.69 511.061 461.69C511.061 461.69 503.339 447.922 506.329 433.552C509.32 419.182 521.891 409.651 521.891 409.651C521.891 409.651 529.613 423.419 526.622 437.789Z" fill="#6C63FF"/>
<path d="M513.787 289.509V460.814L456.781 507.986H165.146V328.404L250.241 289.509H513.787Z" fill="#3F3D56"/>
<path opacity="0.1" d="M513.787 289.509V290.195L493.322 303.917L456.781 328.404H165.146L250.241 289.509H513.787Z" fill="black"/>
<path opacity="0.1" d="M513.787 289.509V460.814L456.781 507.986L457.194 327.991L493.322 303.917L513.456 289.509H513.787Z" fill="black"/>
<path d="M436.953 313.094H259.329L272.547 305.646H442.737L436.953 313.094Z" fill="#2F2E41"/>
<path d="M590.256 517.303C590.256 517.303 593.7 531.728 590.569 532.355C587.439 532.982 572.1 532.78 568.343 533.407C564.587 534.034 556.76 532.982 556.76 530.16C556.76 527.338 564.9 525.456 564.9 525.456C564.9 525.456 576.482 519.185 576.795 518.871C577.108 518.558 590.256 517.303 590.256 517.303Z" fill="#2F2E41"/>
<path d="M587.439 432.324C587.439 432.324 586.5 442.986 586.5 443.927C586.5 444.867 587.439 459.605 586.5 460.233C585.56 460.86 587.126 465.25 587.126 466.818C587.126 468.386 592.134 494.412 590.882 504.447C589.63 514.481 592.761 513.54 591.821 514.481C590.882 515.422 590.882 515.422 590.882 517.303C590.882 519.185 580.865 520.753 580.865 520.753L569.908 451.453L575.543 430.757L587.439 432.324Z" fill="#575A89"/>
<path opacity="0.1" d="M587.439 432.324C587.439 432.324 586.5 442.986 586.5 443.927C586.5 444.867 587.439 459.605 586.5 460.233C585.56 460.86 587.126 465.25 587.126 466.818C587.126 468.386 592.134 494.412 590.882 504.447C589.63 514.481 592.761 513.54 591.821 514.481C590.882 515.422 590.882 515.422 590.882 517.303C590.882 519.185 580.865 520.753 580.865 520.753L569.908 451.453L575.543 430.757L587.439 432.324Z" fill="black"/>
<path d="M585.874 521.693C585.874 521.693 589.004 532.982 585.874 533.609C582.743 534.236 567.404 532.891 563.647 533.518C559.891 534.145 552.065 534.236 552.065 531.414C552.065 528.592 560.204 526.71 560.204 526.71C560.204 526.71 571.787 520.439 572.1 520.125C572.413 519.812 585.874 521.693 585.874 521.693Z" fill="#2F2E41"/>
<path d="M590.256 419.781C590.256 419.781 594.013 428.875 589.63 433.579C585.247 438.282 580.239 447.69 580.239 448.317C580.239 448.944 589.004 511.345 587.752 515.422C586.5 519.498 586.813 522.007 587.126 522.634C587.439 523.261 583.995 526.71 580.239 526.71C576.482 526.71 570.847 523.888 570.221 521.38C569.595 518.871 571.161 497.234 570.847 493.158C570.534 489.081 568.969 483.124 568.343 481.869C567.717 480.615 564.274 479.361 563.647 475.598C563.021 471.835 558.013 423.858 559.578 422.29C561.143 420.722 590.256 419.781 590.256 419.781Z" fill="#575A89"/>
<path d="M566.465 347.659C572.343 347.659 577.108 342.886 577.108 336.998C577.108 331.11 572.343 326.336 566.465 326.336C560.587 326.336 555.821 331.11 555.821 336.998C555.821 342.886 560.587 347.659 566.465 347.659Z" fill="#FFB9B9"/>
<path d="M573.039 342.329C573.039 342.329 570.847 353.931 572.413 355.185C573.978 356.439 560.517 358.321 560.517 358.321C560.517 358.321 558.952 342.956 558.639 341.388C558.326 339.82 573.039 342.329 573.039 342.329Z" fill="#FFB9B9"/>
<path d="M558.639 357.38C558.639 357.38 562.395 346.405 577.734 349.541C577.734 349.541 580.552 350.481 579.613 351.422C578.673 352.363 577.734 352.363 578.987 353.304C580.239 354.244 581.804 353.304 580.865 354.244C579.926 355.185 589.317 360.829 588.691 371.491C588.065 382.152 590.882 397.204 588.691 399.713C586.5 402.221 590.256 413.196 589.63 415.391C589.004 417.586 593.387 420.409 591.508 421.349C589.63 422.29 555.821 427.934 554.882 421.349C553.943 414.764 554.569 419.468 553.63 417.9C552.691 416.332 552.378 413.51 553.004 410.061C553.63 406.611 555.195 398.145 554.569 395.009C553.943 391.873 554.569 365.533 556.447 362.397C558.326 359.262 558.639 357.38 558.639 357.38Z" fill="#6C63FF"/>
<path d="M565.213 433.892C565.213 433.892 569.908 451.766 563.96 451.766C558.013 451.766 558.326 433.265 558.326 433.265L565.213 433.892Z" fill="#FFB9B9"/>
<path d="M561.769 336.998C561.769 337.907 563.084 338.484 565.122 338.616H565.125C565.989 338.665 566.856 338.648 567.717 338.566C569.019 338.446 569.558 339.673 569.78 341.291C570.143 343.959 569.636 347.7 570.221 348.286C571.029 349.095 576.917 348.283 578.758 346.449C579.045 346.192 579.235 345.844 579.3 345.464C579.493 344.344 580.044 343.317 580.871 342.539C581.957 341.35 583.504 340.033 585.247 337.939C588.378 334.176 585.247 333.862 584.308 331.04C583.369 328.218 581.804 327.277 581.804 325.396C581.804 323.514 574.604 321.946 568.656 322.26C562.708 322.573 563.96 330.099 563.96 330.099C563.96 330.099 563.607 331.008 563.184 332.181C562.612 333.653 562.148 335.164 561.794 336.703C561.78 336.801 561.771 336.899 561.769 336.998Z" fill="#2F2E41"/>
<path opacity="0.1" d="M563.021 362.084C563.021 362.084 573.665 361.457 574.604 377.135C575.543 392.814 575.23 407.552 575.23 407.866C575.23 408.179 570.847 437.969 566.778 437.969C562.708 437.969 559.578 437.342 558.639 435.774C557.7 434.206 561.143 411.629 561.143 411.629C561.143 411.629 562.708 387.797 560.204 380.271C557.7 372.745 557.387 363.024 563.021 362.084Z" fill="black"/>
<path d="M561.456 360.516C561.456 360.516 572.1 359.889 573.039 375.567C573.978 391.246 573.665 405.984 573.665 406.298C573.665 406.611 569.282 436.401 565.213 436.401C561.143 436.401 558.013 435.774 557.074 434.206C556.134 432.638 559.578 410.061 559.578 410.061C559.578 410.061 561.143 386.229 558.639 378.703C556.134 371.177 555.821 361.457 561.456 360.516Z" fill="#6C63FF"/>
<path d="M384.964 207.237C384.964 207.237 380.325 194.072 376.975 198.202C373.625 202.332 382.129 209.302 382.129 209.302L384.964 207.237Z" fill="#A0616A"/>
<path d="M406.868 194.33L404.078 195.366C404.078 195.366 402.745 201.3 403.26 202.332C403.776 203.365 404.033 202.59 403.26 204.655C402.487 206.72 400.168 212.141 399.91 212.916C399.652 213.69 384.964 208.011 384.964 205.172C384.964 205.172 381.872 208.785 380.325 209.56C380.325 209.56 397.333 221.95 399.652 223.499C401.972 225.048 403.26 224.273 405.322 222.466C407.383 220.659 416.145 205.688 416.145 205.688L406.868 194.33Z" fill="#575A89"/>
<path d="M399.395 285.967C399.395 285.967 399.652 288.806 400.168 289.064C400.683 289.322 404.549 295.776 400.168 297.066C395.787 298.357 393.21 297.841 392.179 298.357C391.149 298.873 373.11 299.906 372.852 297.066C372.595 294.227 381.614 293.71 381.614 293.71C381.614 293.71 389.86 288.29 391.149 285.45C392.437 282.611 399.395 285.967 399.395 285.967Z" fill="#2F2E41"/>
<path d="M451.707 291.129C451.707 291.129 457.891 301.713 456.345 303.003C454.799 304.294 439.741 308.997 437.533 309.198C434.699 309.456 432.637 307.133 434.956 305.843C437.276 304.552 442.172 299.131 442.172 297.324V292.678L451.707 291.129Z" fill="#2F2E41"/>
<path d="M457.634 221.95C457.634 221.95 463.045 228.662 454.541 239.503L440.368 257.572C440.368 257.572 449.13 271.511 449.387 278.739C449.645 285.967 451.449 284.418 451.964 287.515C452.48 290.613 454.799 289.064 452.995 291.387C451.191 293.711 444.491 295.776 442.43 293.969C441.72 293.319 441.167 292.517 440.81 291.623C440.453 290.729 440.302 289.766 440.368 288.806C440.368 287.773 436.76 281.836 436.503 280.03C436.245 278.223 426.71 263.509 426.71 263.509C426.71 263.509 423.618 254.733 427.226 249.828C430.833 244.924 433.217 237.968 433.217 237.968C433.217 237.968 422.587 250.861 415.114 253.958C415.114 253.958 412.279 254.475 412.795 255.765C413.31 257.056 412.795 257.83 412.022 259.121C411.249 260.412 405.837 275.383 404.033 279.255C402.229 283.127 403.003 285.45 400.941 286.741C398.879 288.032 389.602 286.999 389.602 285.708C389.602 284.418 390.891 281.062 391.664 279.255C392.437 277.448 398.622 256.54 398.106 252.926C397.591 249.312 398.364 244.408 402.229 242.342C406.095 240.277 425.68 223.499 426.71 223.499C427.741 223.499 457.634 221.95 457.634 221.95Z" fill="#2F2E41"/>
<path d="M405.837 181.424C411.815 181.424 416.66 176.57 416.66 170.582C416.66 164.595 411.815 159.741 405.837 159.741C399.86 159.741 395.014 164.595 395.014 170.582C395.014 176.57 399.86 181.424 405.837 181.424Z" fill="#A0616A"/>
<path d="M414.599 171.615C414.599 171.615 417.949 177.552 422.072 178.326C426.195 179.1 411.249 190.974 411.249 190.974C411.249 190.974 407.641 179.617 404.549 179.1C401.456 178.584 414.599 171.615 414.599 171.615Z" fill="#A0616A"/>
<path d="M404.033 195.879C404.033 199.235 414.083 208.785 414.083 208.785L423.618 216.788C423.618 216.788 423.876 219.627 424.906 219.885C425.937 220.143 427.226 220.143 426.195 221.692C425.164 223.241 422.587 226.596 424.906 227.113C425.606 227.219 426.31 227.286 427.017 227.314C427.635 227.35 428.362 227.384 429.179 227.415C431.086 227.482 433.472 227.526 436.057 227.508C436.791 227.505 437.539 227.496 438.299 227.482C448.042 227.288 459.329 226.165 458.407 222.466C456.86 216.271 457.891 214.206 454.541 210.85C451.191 207.495 445.78 195.879 445.78 195.879C445.78 195.879 434.956 177.552 425.937 177.552L424.064 177.059C423.193 176.829 422.273 176.879 421.432 177.203C420.592 177.526 419.875 178.106 419.382 178.86C417.572 181.62 414.72 185.765 413.053 187.102C410.476 189.168 410.074 187.686 410.074 187.686C410.074 187.686 404.033 192.523 404.033 195.879Z" fill="#575A89"/>
<path d="M426.968 235.115C426.968 235.115 419.495 246.731 424.133 248.796C428.772 250.861 431.349 236.664 431.349 236.664L426.968 235.115Z" fill="#A0616A"/>
<path d="M412.913 169.358C412.497 169.305 412.366 168.78 412.296 168.367C411.922 166.152 410.274 164.052 408.061 163.695C407.215 163.582 406.354 163.652 405.537 163.899C404.367 164.22 403.268 164.762 402.3 165.495C401.826 165.929 401.278 166.274 400.682 166.513C400.275 166.632 398.551 167.4 398.148 167.53C397.262 167.816 396.529 168.745 395.617 168.561C394.744 168.385 394.413 167.329 394.272 166.448C393.953 164.442 395.099 161.448 396.239 159.768C397.104 158.492 398.568 157.758 400.031 157.281C401.746 156.759 403.508 156.409 405.291 156.234C407.698 155.949 410.192 155.798 412.499 156.543C414.806 157.289 416.907 159.112 417.337 161.502C417.427 162 417.444 162.509 417.554 163.003C417.822 164.207 418.618 165.22 419.082 166.363C419.416 167.202 419.572 168.103 419.538 169.006C419.504 169.909 419.281 170.796 418.885 171.608C418.242 172.902 417.125 174.146 417.366 175.571L415.377 174C415.09 173.837 414.867 173.58 414.746 173.271C414.626 172.963 414.614 172.623 414.713 172.307L415.003 169.813C415.103 169.361 415.057 168.889 414.874 168.464C413.99 166.918 413.605 169.445 412.913 169.358Z" fill="#2F2E41"/>
<path opacity="0.1" d="M431.607 217.304L429.179 227.415C431.627 227.503 434.866 227.549 438.299 227.482C439.165 224.88 439.992 222.167 440.626 219.627C442.945 210.334 439.08 196.137 437.018 189.426C434.957 182.714 429.803 180.907 429.803 180.907C427.69 181.652 425.694 182.695 423.876 184.005C420.526 186.328 431.607 217.304 431.607 217.304Z" fill="black"/>
<path opacity="0.1" d="M429.545 216.788L427.017 227.314C427.635 227.35 428.362 227.384 429.179 227.415C431.086 227.482 433.472 227.526 436.057 227.508C436.987 224.743 437.887 221.826 438.564 219.111C440.883 209.818 437.018 195.621 434.957 188.909C432.895 182.198 428.385 189.555 428.385 189.555C428.385 189.555 430.189 185.166 426.839 187.49C423.489 189.813 429.545 216.788 429.545 216.788Z" fill="black"/>
<path d="M428.772 180.391C428.772 180.391 433.926 182.198 435.987 188.909C438.049 195.621 441.914 209.818 439.595 219.111C437.276 228.403 432.38 240.019 432.38 240.019C432.38 240.019 427.483 236.405 425.68 237.18L430.576 216.788C430.576 216.788 419.495 185.812 422.845 183.489C424.663 182.178 426.659 181.135 428.772 180.391Z" fill="#575A89"/>
<path d="M432.613 309.867L361.318 161.046L242.106 218.35L285.949 309.867H432.613Z" fill="#F2F2F2"/>
<path d="M337.191 219.462L273.874 249.898L275.76 253.835L339.077 223.398L337.191 219.462Z" fill="#3F3D56"/>
<path d="M353.956 254.455L290.638 284.891L292.524 288.828L355.841 258.391L353.956 254.455Z" fill="#3F3D56"/>
<path d="M365.471 198.872L349.751 206.429L357.295 222.175L373.015 214.619L365.471 198.872Z" fill="#3F3D56"/>
<path d="M382.235 233.865L366.515 241.422L374.059 257.169L389.779 249.612L382.235 233.865Z" fill="#3F3D56"/>
<path d="M366.554 187.965L360.08 206.416L351.353 203.343L350.158 206.747L362.272 211.012L369.952 189.161L366.554 187.965Z" fill="#57B894"/>
<path d="M383.318 222.958L376.844 241.409L368.117 238.337L366.923 241.74L379.036 246.005L386.716 224.154L383.318 222.958Z" fill="#57B894"/>
<path d="M76.8805 481.151L109.091 474.259L102.211 441.994L70 448.886L76.8805 481.151Z" fill="#F2F2F2"/>
<path d="M108.195 433.373C108.195 433.373 96.3643 441.838 100.308 445.224C104.252 448.61 112.139 435.066 112.139 435.066L108.195 433.373Z" fill="#FFB9B9"/>
<path d="M162.844 446.353C162.844 446.353 160.59 474.57 160.027 478.52C159.463 482.471 158.9 518.024 157.773 521.974C156.646 525.925 155.52 535.519 155.52 535.519H148.759C148.759 535.519 149.322 518.024 147.632 511.252C145.942 504.48 146.506 485.857 146.506 485.857C146.506 485.857 143.125 452.561 144.815 448.046C146.506 443.531 162.844 446.353 162.844 446.353Z" fill="#FFB9B9"/>
<path d="M153.83 533.826C153.83 533.826 156.646 535.518 156.646 536.647C156.646 537.776 156.083 540.598 156.646 541.726C157.21 542.855 161.154 547.37 158.9 548.498C156.646 549.627 146.506 548.498 146.506 548.498C146.506 548.498 147.069 540.598 147.632 540.033C148.196 539.469 147.069 533.826 147.069 533.826H153.83Z" fill="#2F2E41"/>
<path d="M119.776 445.661C119.776 445.661 119.06 473.959 119.207 477.947C119.353 481.935 116.188 517.351 116.894 521.398C117.601 525.445 117.716 535.104 117.716 535.104L124.439 535.815C124.439 535.815 125.712 518.358 128.103 511.801C130.493 505.244 131.885 486.665 131.885 486.665C131.885 486.665 138.735 453.908 137.528 449.24C136.32 444.573 119.776 445.661 119.776 445.661Z" fill="#FFB9B9"/>
<path d="M119.574 533.599C119.574 533.599 116.596 534.986 116.477 536.108C116.359 537.231 116.624 540.096 115.945 541.159C115.267 542.223 110.872 546.298 112.994 547.657C115.117 549.017 125.32 548.96 125.32 548.96C125.32 548.96 125.588 541.044 125.087 540.424C124.586 539.803 126.298 534.309 126.298 534.309L119.574 533.599Z" fill="#2F2E41"/>
<path d="M154.956 404.027C154.956 404.027 159.463 404.592 161.154 414.185C162.844 423.779 169.041 448.046 163.97 449.739C158.9 451.432 143.689 454.818 143.125 453.689C142.562 452.561 141.435 449.739 141.435 449.739C141.435 449.739 143.125 454.818 140.872 454.818C138.618 454.818 116.646 451.432 117.21 449.739C117.773 448.046 118.9 435.63 118.9 435.63C118.9 435.63 122.28 414.75 125.66 411.364C126.639 410.423 127.398 409.278 127.885 408.01C128.372 406.742 128.574 405.382 128.477 404.027H154.956Z" fill="#2F2E41"/>
<path d="M163.407 399.513C163.407 399.513 156.083 397.82 154.956 400.077C153.83 402.334 157.773 405.72 159.463 405.72C161.154 405.72 163.97 404.027 163.97 404.027L163.407 399.513Z" fill="#FFB9B9"/>
<path d="M148.196 351.544C153.796 351.544 158.337 346.996 158.337 341.385C158.337 335.775 153.796 331.227 148.196 331.227C142.595 331.227 138.055 335.775 138.055 341.385C138.055 346.996 142.595 351.544 148.196 351.544Z" fill="#FFB9B9"/>
<path d="M146.506 348.722C146.506 348.722 144.815 356.623 145.942 356.623C147.069 356.623 137.491 361.702 137.491 361.702L130.167 360.573L127.914 357.187C127.914 357.187 139.745 349.286 139.745 344.771C139.745 340.257 146.506 348.722 146.506 348.722Z" fill="#FFB9B9"/>
<path d="M141.435 356.623C141.435 356.623 143.125 355.494 143.689 355.494H148.196C148.759 355.494 156.083 357.187 156.083 357.187L160.59 382.582C160.59 382.582 152.703 395.562 158.337 405.72C158.337 405.72 156.646 404.592 148.759 405.156C140.872 405.72 126.787 407.413 126.224 407.413C125.66 407.413 125.66 402.899 126.224 401.77C126.787 400.641 125.66 401.206 125.66 398.384C125.66 395.562 123.97 390.483 123.97 390.483L116.083 361.702C116.083 361.702 126.224 356.058 127.914 356.623C129.604 357.187 134.674 358.88 135.801 358.316C136.928 357.751 141.435 356.623 141.435 356.623Z" fill="#6C63FF"/>
<path d="M154.393 357.751L156.083 357.187C156.083 357.187 159.463 356.623 163.407 360.009C167.351 363.395 181.999 373.553 181.999 373.553C181.999 373.553 187.633 378.068 185.942 383.147C184.252 388.226 181.435 400.641 172.985 400.077C172.985 400.077 167.914 406.849 165.097 405.72C162.28 404.592 160.027 400.077 161.717 399.513C163.407 398.948 167.914 393.305 167.914 393.305L162.28 382.582H160.59L154.393 379.196L154.393 357.751Z" fill="#6C63FF"/>
<path d="M120.59 361.137L116.083 361.702C116.083 361.702 112.139 363.395 112.702 370.731C113.266 378.068 109.322 411.364 111.012 415.314C111.012 415.314 105.378 434.502 106.505 435.066C107.632 435.63 114.393 439.016 113.829 436.759C113.266 434.502 120.026 418.7 120.026 418.7C120.026 418.7 127.914 410.235 124.534 398.384V388.79L120.59 361.137Z" fill="#6C63FF"/>
<path d="M156.636 351.207L149.474 352.769L148.553 349.237L148.907 352.893L137.353 355.414L136.845 353.464L137.04 355.483L129.64 357.098L128.057 341.875C126.429 335.629 132.369 328.972 138.605 327.341L141.371 326.618C145.951 325.421 154.277 326.509 155.472 331.097C153.38 339.096 149.813 347.865 156.636 351.207Z" fill="#2F2E41"/>
</g>
<defs>
<clipPath id="clip0_389:5">
<rect width="522" height="393" fill="white" transform="translate(70 156)"/>
</clipPath>
</defs>
</svg>
